\relax 
\providecommand\hyper@newdestlabel[2]{}
\providecommand\BKM@entry[2]{}
\providecommand*\new@tpo@label[2]{}
\catcode `"\active 
\abx@aux@refcontext{nty/global//global/global}
\providecommand\HyperFirstAtBeginDocument{\AtBeginDocument}
\HyperFirstAtBeginDocument{\ifx\hyper@anchor\@undefined
\global\let\oldcontentsline\contentsline
\gdef\contentsline#1#2#3#4{\oldcontentsline{#1}{#2}{#3}}
\global\let\oldnewlabel\newlabel
\gdef\newlabel#1#2{\newlabelxx{#1}#2}
\gdef\newlabelxx#1#2#3#4#5#6{\oldnewlabel{#1}{{#2}{#3}}}
\AtEndDocument{\ifx\hyper@anchor\@undefined
\let\contentsline\oldcontentsline
\let\newlabel\oldnewlabel
\fi}
\fi}
\global\let\hyper@last\relax 
\gdef\HyperFirstAtBeginDocument#1{#1}
\providecommand\HyField@AuxAddToFields[1]{}
\providecommand\HyField@AuxAddToCoFields[2]{}
\@writefile{toc}{\boolfalse {citerequest}\boolfalse {citetracker}\boolfalse {pagetracker}\boolfalse {backtracker}\relax }
\@writefile{lof}{\boolfalse {citerequest}\boolfalse {citetracker}\boolfalse {pagetracker}\boolfalse {backtracker}\relax }
\@writefile{lot}{\boolfalse {citerequest}\boolfalse {citetracker}\boolfalse {pagetracker}\boolfalse {backtracker}\relax }
\babel@aux{ngerman}{}
\gdef\toc@l@number{28.02pt}
\BKM@entry{id=1,dest={636861707465722A2E32},srcline={139}}{416262696C64756E67732D20756E6420546162656C6C656E7665727A656963686E6973}
\@writefile{toc}{\contentsline {chapter}{\nonumberline Abbildungs- und Tabellenverzeichnis}{8}{chapter*.2}\protected@file@percent }
\@writefile{lof}{\addvspace {10\p@ }}
\@writefile{lot}{\addvspace {10\p@ }}
\@writefile{alof}{\addvspace {10\p@ }}
\BKM@entry{id=2,dest={636861707465722A2E35},srcline={142}}{41626B5C333734727A756E67737665727A656963686E6973}
\@writefile{toc}{\contentsline {chapter}{\nonumberline Abk\IeC {\"u}rzungsverzeichnis}{12}{chapter*.5}\protected@file@percent }
\@writefile{lof}{\addvspace {10\p@ }}
\@writefile{lot}{\addvspace {10\p@ }}
\@writefile{alof}{\addvspace {10\p@ }}
\BKM@entry{id=3,dest={636861707465722E30},srcline={1}}{5C3333346265727369636874}
\@writefile{toc}{\contentsline {chapter}{\numberline {0}\IeC {\"U}bersicht}{14}{chapter.0}\protected@file@percent }
\@writefile{lof}{\addvspace {10\p@ }}
\@writefile{lot}{\addvspace {10\p@ }}
\@writefile{alof}{\addvspace {10\p@ }}
\BKM@entry{id=4,dest={636861707465722E31},srcline={1}}{556D77656C7473696D756C6174696F6E3A204B6C696D616B616D6D6572}
\BKM@entry{id=5,dest={73656374696F6E2E312E31},srcline={3}}{547970656E20756E6420416E77656E64756E67736D5C333636676C6963686B656974656E}
\abx@aux@cite{brutschrank}
\abx@aux@segm{0}{0}{brutschrank}
\abx@aux@cite{autoschrank}
\abx@aux@segm{0}{0}{autoschrank}
\@writefile{toc}{\contentsline {chapter}{\numberline {1}Umweltsimulation: Klimakammer}{15}{chapter.1}\protected@file@percent }
\@writefile{lof}{\addvspace {10\p@ }}
\@writefile{lot}{\addvspace {10\p@ }}
\@writefile{alof}{\addvspace {10\p@ }}
\newlabel{klimakammer}{{1}{15}{Umweltsimulation: Klimakammer}{chapter.1}{}}
\newlabel{klimakammer@cref}{{[chapter][1][]1}{[1][15][]15}}
\@writefile{toc}{\contentsline {section}{\numberline {1.1}Typen und Anwendungsm\IeC {\"o}glichkeiten}{15}{section.1.1}\protected@file@percent }
\newlabel{typen_anwedung}{{1.1}{15}{Typen und Anwendungsmöglichkeiten}{section.1.1}{}}
\newlabel{typen_anwedung@cref}{{[section][1][1]1.1}{[1][15][]15}}
\BKM@entry{id=6,dest={73656374696F6E2E312E32},srcline={7}}{54656D7065726174757220756E642054656D706572617475726D657373756E67}
\abx@aux@cite{therm}
\abx@aux@segm{0}{0}{therm}
\abx@aux@cite{thempmess}
\abx@aux@segm{0}{0}{thempmess}
\abx@aux@cite{pyrom}
\abx@aux@segm{0}{0}{pyrom}
\@writefile{toc}{\contentsline {section}{\numberline {1.2}Temperatur und Temperaturmessung}{16}{section.1.2}\protected@file@percent }
\newlabel{temperatur}{{1.2}{16}{Temperatur und Temperaturmessung}{section.1.2}{}}
\newlabel{temperatur@cref}{{[section][2][1]1.2}{[1][16][]16}}
\@writefile{lot}{\contentsline {table}{\numberline {1.1}{\ignorespaces Ber\IeC {\"u}hrungsthermometer\relax }}{17}{table.caption.6}\protected@file@percent }
\providecommand*\caption@xref[2]{\@setref\relax\@undefined{#1}}
\newlabel{ber_therm}{{1.1}{17}{Berührungsthermometer\relax }{table.caption.6}{}}
\newlabel{ber_therm@cref}{{[table][1][1]1.1}{[1][16][]17}}
\BKM@entry{id=7,dest={73656374696F6E2E312E33},srcline={30}}{4C7566746665756368746520756E64204C756674666575636874656D657373756E67}
\abx@aux@cite{relL}
\abx@aux@segm{0}{0}{relL}
\abx@aux@cite{absL}
\abx@aux@segm{0}{0}{absL}
\abx@aux@cite{FeuchteBer}
\abx@aux@segm{0}{0}{FeuchteBer}
\@writefile{toc}{\contentsline {section}{\numberline {1.3}Luftfeuchte und Luftfeuchtemessung}{18}{section.1.3}\protected@file@percent }
\newlabel{luftfeuchte}{{1.3}{18}{Luftfeuchte und Luftfeuchtemessung}{section.1.3}{}}
\newlabel{luftfeuchte@cref}{{[section][3][1]1.3}{[1][18][]18}}
\newlabel{absFeuchteF}{{1.1}{18}{Luftfeuchte und Luftfeuchtemessung}{equation.1.3.1}{}}
\newlabel{absFeuchteF@cref}{{[subequation][1][1]1.1}{[1][18][]18}}
\abx@aux@cite{befeuchterarten}
\abx@aux@segm{0}{0}{befeuchterarten}
\abx@aux@cite{entfeuchterarten}
\abx@aux@segm{0}{0}{entfeuchterarten}
\abx@aux@cite{luftfmess}
\abx@aux@segm{0}{0}{luftfmess}
\BKM@entry{id=8,dest={73656374696F6E2E312E34},srcline={102}}{44657220504944205265676C6572}
\abx@aux@cite{regler}
\abx@aux@segm{0}{0}{regler}
\abx@aux@cite{regelkreis}
\abx@aux@segm{0}{0}{regelkreis}
\abx@aux@segm{0}{0}{regelkreis}
\abx@aux@segm{0}{0}{regler}
\@writefile{toc}{\contentsline {section}{\numberline {1.4}Der PID Regler}{23}{section.1.4}\protected@file@percent }
\newlabel{pid}{{1.4}{23}{Der PID Regler}{section.1.4}{}}
\newlabel{pid@cref}{{[section][4][1]1.4}{[1][22][]23}}
\@writefile{lof}{\contentsline {figure}{\numberline {1.1}{\ignorespaces Allgemeiner Regelkreis \cite {regelkreis}\relax }}{23}{figure.caption.7}\protected@file@percent }
\newlabel{fig:regelkreis}{{1.1}{23}{Allgemeiner Regelkreis \cite {regelkreis}\relax }{figure.caption.7}{}}
\newlabel{fig:regelkreis@cref}{{[figure][1][1]1.1}{[1][23][]23}}
\abx@aux@segm{0}{0}{regler}
\abx@aux@cite{regler_T}
\abx@aux@segm{0}{0}{regler_T}
\abx@aux@segm{0}{0}{regler}
\abx@aux@cite{sprungantwort}
\abx@aux@segm{0}{0}{sprungantwort}
\abx@aux@segm{0}{0}{sprungantwort}
\newlabel{reglerformeln}{{1.2}{25}{Der PID Regler}{equation.1.4.2}{}}
\newlabel{reglerformeln@cref}{{[subequation][2][1]1.2}{[1][25][]25}}
\abx@aux@segm{0}{0}{regler}
\abx@aux@segm{0}{0}{regler}
\@writefile{lof}{\contentsline {figure}{\numberline {1.2}{\ignorespaces Allgemeine Sprungantwort mit Berechnungsparametern \cite {sprungantwort}\relax }}{26}{figure.caption.8}\protected@file@percent }
\newlabel{fig:sprungantwort}{{1.2}{26}{Allgemeine Sprungantwort mit Berechnungsparametern \cite {sprungantwort}\relax }{figure.caption.8}{}}
\newlabel{fig:sprungantwort@cref}{{[figure][2][1]1.2}{[1][25][]26}}
\@writefile{lot}{\contentsline {table}{\numberline {1.2}{\ignorespaces Einstellregeln nach Ziegler/Nichols und Kuhn\cite {regler}\relax }}{26}{table.caption.9}\protected@file@percent }
\newlabel{einstellregeln}{{1.2}{26}{Einstellregeln nach Ziegler/Nichols und Kuhn\cite {regler}\relax }{table.caption.9}{}}
\newlabel{einstellregeln@cref}{{[table][2][1]1.2}{[1][26][]26}}
\newlabel{formeln_einstellregel}{{1.3}{26}{Der PID Regler}{equation.1.4.3}{}}
\newlabel{formeln_einstellregel@cref}{{[subequation][3][1]1.3}{[1][26][]26}}
\BKM@entry{id=9,dest={73656374696F6E2E312E35},srcline={155}}{446965204B6C696D616B616D6D65722062656920574156454C4142533A2041757367616E6773736974756174696F6E}
\abx@aux@cite{dsheet:chiller}
\abx@aux@segm{0}{0}{dsheet:chiller}
\@writefile{toc}{\contentsline {section}{\numberline {1.5}Die Klimakammer bei WAVELABS: Ausgangssituation}{27}{section.1.5}\protected@file@percent }
\newlabel{klimakammer_wavelabs}{{1.5}{27}{Die Klimakammer bei WAVELABS: Ausgangssituation}{section.1.5}{}}
\newlabel{klimakammer_wavelabs@cref}{{[section][5][1]1.5}{[1][27][]27}}
\abx@aux@cite{dsheet:entfeucht}
\abx@aux@segm{0}{0}{dsheet:entfeucht}
\@writefile{lof}{\contentsline {figure}{\numberline {1.3}{\ignorespaces Ausgangssituation:\newline  Klimakammer\newline  Vorderansicht\relax }}{28}{figure.caption.10}\protected@file@percent }
\newlabel{fig:KK_vorne_alt}{{1.3}{28}{Ausgangssituation:\newline Klimakammer\newline Vorderansicht\relax }{figure.caption.10}{}}
\newlabel{fig:KK_vorne_alt@cref}{{[figure][3][1]1.3}{[1][27][]28}}
\@writefile{lof}{\contentsline {figure}{\numberline {1.4}{\ignorespaces Ausgangssituation\newline  Klimakammer\newline  Seitenansicht\relax }}{28}{figure.caption.10}\protected@file@percent }
\newlabel{fig:KK_seite_alt}{{1.4}{28}{Ausgangssituation\newline Klimakammer\newline Seitenansicht\relax }{figure.caption.10}{}}
\newlabel{fig:KK_seite_alt@cref}{{[figure][4][1]1.4}{[1][27][]28}}
\BKM@entry{id=10,dest={636861707465722E32},srcline={1}}{4765666F726465727465205A69656C652064657320476573616D7473797374656D}
\@writefile{toc}{\contentsline {chapter}{\numberline {2}Geforderte Ziele des Gesamtsystem}{30}{chapter.2}\protected@file@percent }
\@writefile{lof}{\addvspace {10\p@ }}
\@writefile{lot}{\addvspace {10\p@ }}
\@writefile{alof}{\addvspace {10\p@ }}
\newlabel{geforderteziele}{{2}{30}{Geforderte Ziele des Gesamtsystem}{chapter.2}{}}
\newlabel{geforderteziele@cref}{{[chapter][2][]2}{[1][30][]30}}
\BKM@entry{id=11,dest={636861707465722E33},srcline={1}}{4B6F6E7A657074696F6E696572756E6720756E6420506C616E756E67}
\BKM@entry{id=12,dest={73656374696F6E2E332E31},srcline={3}}{4469652044616D706665727A657567756E67736B6F6D706F6E656E74656E}
\@writefile{toc}{\contentsline {chapter}{\numberline {3}Konzeptionierung und Planung}{32}{chapter.3}\protected@file@percent }
\@writefile{lof}{\addvspace {10\p@ }}
\@writefile{lot}{\addvspace {10\p@ }}
\@writefile{alof}{\addvspace {10\p@ }}
\newlabel{konzeptionierung}{{3}{32}{Konzeptionierung und Planung}{chapter.3}{}}
\newlabel{konzeptionierung@cref}{{[chapter][3][]3}{[1][32][]32}}
\@writefile{toc}{\contentsline {section}{\numberline {3.1}Die Dampferzeugungskomponenten}{32}{section.3.1}\protected@file@percent }
\newlabel{dampfkomponenten}{{3.1}{32}{Die Dampferzeugungskomponenten}{section.3.1}{}}
\newlabel{dampfkomponenten@cref}{{[section][1][3]3.1}{[1][32][]32}}
\BKM@entry{id=13,dest={73656374696F6E2E332E32},srcline={10}}{4D6573732D20756E6420537465756572656C656B74726F6E696B}
\abx@aux@cite{stm8}
\abx@aux@segm{0}{0}{stm8}
\abx@aux@cite{stm32f042}
\abx@aux@segm{0}{0}{stm32f042}
\abx@aux@cite{stm32f038}
\abx@aux@segm{0}{0}{stm32f038}
\abx@aux@cite{stm32l052}
\abx@aux@segm{0}{0}{stm32l052}
\@writefile{toc}{\contentsline {section}{\numberline {3.2}Mess- und Steuerelektronik}{34}{section.3.2}\protected@file@percent }
\newlabel{elektronik}{{3.2}{34}{Mess- und Steuerelektronik}{section.3.2}{}}
\newlabel{elektronik@cref}{{[section][2][3]3.2}{[1][34][]34}}
\@writefile{toc}{\contentsline {subsubsection}{\nonumberline Steuereinheit mit Mikrocontroller}{34}{section*.11}\protected@file@percent }
\newlabel{steuereinheit_uC}{{3.2}{34}{Steuereinheit mit Mikrocontroller}{section*.11}{}}
\newlabel{steuereinheit_uC@cref}{{[section][2][3]3.2}{[1][34][]34}}
\abx@aux@cite{uC_datasheet}
\abx@aux@segm{0}{0}{uC_datasheet}
\abx@aux@cite{uC_USB}
\abx@aux@segm{0}{0}{uC_USB}
\abx@aux@cite{uC_GPIOconf}
\abx@aux@segm{0}{0}{uC_GPIOconf}
\abx@aux@cite{stLink}
\abx@aux@segm{0}{0}{stLink}
\abx@aux@cite{az1117}
\abx@aux@segm{0}{0}{az1117}
\@writefile{lot}{\contentsline {table}{\numberline {3.1}{\ignorespaces Auswahl Mikrocontroller\relax }}{35}{table.caption.12}\protected@file@percent }
\newlabel{stm32_auswahl}{{3.1}{35}{Auswahl Mikrocontroller\relax }{table.caption.12}{}}
\newlabel{stm32_auswahl@cref}{{[table][1][3]3.1}{[1][34][]35}}
\@writefile{lof}{\contentsline {figure}{\numberline {3.1}{\ignorespaces Grundschaltung Mikrocontroller mit Stromversorgung\relax }}{37}{figure.caption.13}\protected@file@percent }
\newlabel{fig:stm_schaltung}{{3.1}{37}{Grundschaltung Mikrocontroller mit Stromversorgung\relax }{figure.caption.13}{}}
\newlabel{fig:stm_schaltung@cref}{{[figure][1][3]3.1}{[1][35][]37}}
\newlabel{Rvor}{{3.1}{38}{Steuereinheit mit Mikrocontroller}{equation.3.2.1}{}}
\newlabel{Rvor@cref}{{[equation][1][3]3.1}{[1][38][]38}}
\@writefile{toc}{\contentsline {subsubsection}{\nonumberline Sensor f\IeC {\"u}r Temperatur und Luftfeuchte}{38}{section*.14}\protected@file@percent }
\abx@aux@cite{sht75}
\abx@aux@segm{0}{0}{sht75}
\abx@aux@cite{si7021}
\abx@aux@segm{0}{0}{si7021}
\abx@aux@cite{tl431}
\abx@aux@segm{0}{0}{tl431}
\@writefile{lot}{\contentsline {table}{\numberline {3.2}{\ignorespaces Auswahl Messsensor\relax }}{39}{table.caption.15}\protected@file@percent }
\newlabel{tempRF_sensoren}{{3.2}{39}{Auswahl Messsensor\relax }{table.caption.15}{}}
\newlabel{tempRF_sensoren@cref}{{[table][2][3]3.2}{[1][39][]39}}
\@writefile{toc}{\contentsline {subsubsection}{\nonumberline Detektorschaltung f\IeC {\"u}r den Zylinderf\IeC {\"u}llstand}{40}{section*.16}\protected@file@percent }
\@writefile{lof}{\contentsline {figure}{\numberline {3.2}{\ignorespaces Detektorschaltentwurf A\relax }}{40}{figure.caption.17}\protected@file@percent }
\newlabel{fig:detekt1}{{3.2}{40}{Detektorschaltentwurf A\relax }{figure.caption.17}{}}
\newlabel{fig:detekt1@cref}{{[figure][2][3]3.2}{[1][39][]40}}
\@writefile{lof}{\contentsline {figure}{\numberline {3.3}{\ignorespaces Detektorschaltentwurf B\relax }}{40}{figure.caption.17}\protected@file@percent }
\newlabel{fig:detekt2}{{3.3}{40}{Detektorschaltentwurf B\relax }{figure.caption.17}{}}
\newlabel{fig:detekt2@cref}{{[figure][3][3]3.3}{[1][39][]40}}
\BKM@entry{id=14,dest={73756273656374696F6E2E332E322E31},srcline={115}}{53696D756C6174696F6E}
\@writefile{toc}{\contentsline {subsubsection}{\nonumberline Schaltung f\IeC {\"u}r die Ansteuerung des Magnetventils}{41}{section*.18}\protected@file@percent }
\newlabel{magnetventilansteuerung}{{3.2}{41}{Schaltung für die Ansteuerung des Magnetventils}{section*.18}{}}
\newlabel{magnetventilansteuerung@cref}{{[section][2][3]3.2}{[1][40][]41}}
\@writefile{lof}{\contentsline {figure}{\numberline {3.4}{\ignorespaces MOSFET-Schaltung f\IeC {\"u}r die Magnetventilansteuerung\relax }}{41}{figure.caption.19}\protected@file@percent }
\newlabel{fig:vtMOSFET}{{3.4}{41}{MOSFET-Schaltung für die Magnetventilansteuerung\relax }{figure.caption.19}{}}
\newlabel{fig:vtMOSFET@cref}{{[figure][4][3]3.4}{[1][40][]41}}
\@writefile{toc}{\contentsline {subsubsection}{\nonumberline Schaltung f\IeC {\"u}r die Ansteuerung des Dampfzylinders}{41}{section*.20}\protected@file@percent }
\@writefile{toc}{\contentsline {subsection}{\numberline {3.2.1}Simulation}{42}{subsection.3.2.1}\protected@file@percent }
\newlabel{simulation}{{3.2.1}{42}{Simulation}{subsection.3.2.1}{}}
\newlabel{simulation@cref}{{[subsection][1][3,2]3.2.1}{[1][41][]42}}
\@writefile{toc}{\contentsline {subsubsection}{\nonumberline Detektorschaltung f\IeC {\"u}r den Zylinderf\IeC {\"u}llstand}{42}{section*.21}\protected@file@percent }
\newlabel{simulation_detek}{{3.2.1}{42}{Detektorschaltung für den Zylinderfüllstand}{section*.21}{}}
\newlabel{simulation_detek@cref}{{[subsection][1][3,2]3.2.1}{[1][42][]42}}
\@writefile{lof}{\contentsline {figure}{\numberline {3.5}{\ignorespaces Detektorschaltung Variante A mit angepassten Komponentenwerten\relax }}{43}{figure.caption.22}\protected@file@percent }
\newlabel{fig:det1_sim_schalt}{{3.5}{43}{Detektorschaltung Variante A mit angepassten Komponentenwerten\relax }{figure.caption.22}{}}
\newlabel{fig:det1_sim_schalt@cref}{{[figure][5][3]3.5}{[1][42][]43}}
\@writefile{lof}{\contentsline {figure}{\numberline {3.6}{\ignorespaces Spannungsverlauf der Detektorschaltung Variante A am Ausgang uC\relax }}{43}{figure.caption.23}\protected@file@percent }
\newlabel{fig:det1_sim_kennl}{{3.6}{43}{Spannungsverlauf der Detektorschaltung Variante A am Ausgang uC\relax }{figure.caption.23}{}}
\newlabel{fig:det1_sim_kennl@cref}{{[figure][6][3]3.6}{[1][43][]43}}
\@writefile{lof}{\contentsline {figure}{\numberline {3.7}{\ignorespaces Detektorschaltung Variante B mit angepassten Komponentenwerten\relax }}{45}{figure.caption.24}\protected@file@percent }
\newlabel{fig:det2_sim_schalt}{{3.7}{45}{Detektorschaltung Variante B mit angepassten Komponentenwerten\relax }{figure.caption.24}{}}
\newlabel{fig:det2_sim_schalt@cref}{{[figure][7][3]3.7}{[1][43][]45}}
\@writefile{lof}{\contentsline {figure}{\numberline {3.8}{\ignorespaces Spannungsverlauf der Detektorschaltung Variante B am Ausgang uC\relax }}{45}{figure.caption.25}\protected@file@percent }
\newlabel{fig:det2_sim_kennl}{{3.8}{45}{Spannungsverlauf der Detektorschaltung Variante B am Ausgang uC\relax }{figure.caption.25}{}}
\newlabel{fig:det2_sim_kennl@cref}{{[figure][8][3]3.8}{[1][44][]45}}
\@writefile{toc}{\contentsline {subsubsection}{\nonumberline Schaltung f\IeC {\"u}r die Ansteuerung eines Relais}{46}{section*.26}\protected@file@percent }
\newlabel{simulation_mosfet}{{3.2.1}{46}{Schaltung für die Ansteuerung eines Relais}{section*.26}{}}
\newlabel{simulation_mosfet@cref}{{[subsection][1][3,2]3.2.1}{[1][46][]46}}
\abx@aux@cite{fdc637}
\abx@aux@segm{0}{0}{fdc637}
\abx@aux@cite{diode}
\abx@aux@segm{0}{0}{diode}
\@writefile{lof}{\contentsline {figure}{\numberline {3.9}{\ignorespaces Schaltung f\IeC {\"u}r die Magnetventilansteuerung mit einem $3,\tmspace  -\thinmuskip {.1667em}3\tmspace  +\thinmuskip {.1667em}V$-Signal\relax }}{47}{figure.caption.27}\protected@file@percent }
\newlabel{fig:vt_sim_schalt}{{3.9}{47}{Schaltung für die Magnetventilansteuerung mit einem $3,\!3\,V$-Signal\relax }{figure.caption.27}{}}
\newlabel{fig:vt_sim_schalt@cref}{{[figure][9][3]3.9}{[1][46][]47}}
\@writefile{lof}{\contentsline {figure}{\numberline {3.10}{\ignorespaces Verlauf des Relais-\newline  stromes und der Steuer-\newline  spannung\relax }}{48}{figure.caption.28}\protected@file@percent }
\newlabel{fig:vt_sim_kennl}{{3.10}{48}{Verlauf des Relais-\newline stromes und der Steuer-\newline spannung\relax }{figure.caption.28}{}}
\newlabel{fig:vt_sim_kennl@cref}{{[figure][10][3]3.10}{[1][47][]48}}
\@writefile{lof}{\contentsline {figure}{\numberline {3.11}{\ignorespaces Stromverlauf der Diode D1\relax }}{48}{figure.caption.28}\protected@file@percent }
\newlabel{fig:vt_sim_kennl_d1}{{3.11}{48}{Stromverlauf der Diode D1\relax }{figure.caption.28}{}}
\newlabel{fig:vt_sim_kennl_d1@cref}{{[figure][11][3]3.11}{[1][47][]48}}
\BKM@entry{id=15,dest={73756273656374696F6E2E332E322E32},srcline={197}}{5370657A6966696B6174696F6E2064657220616E646572656E20456C656B74726F6E696B}
\@writefile{lof}{\contentsline {figure}{\numberline {3.12}{\ignorespaces Neue Schaltung f\IeC {\"u}r die Magnetventilansteuerung mit einem RC-Glied\relax }}{49}{figure.caption.29}\protected@file@percent }
\newlabel{fig:vt_sim_schalt_mitRC}{{3.12}{49}{Neue Schaltung für die Magnetventilansteuerung mit einem RC-Glied\relax }{figure.caption.29}{}}
\newlabel{fig:vt_sim_schalt_mitRC@cref}{{[figure][12][3]3.12}{[1][48][]49}}
\@writefile{lof}{\contentsline {figure}{\numberline {3.13}{\ignorespaces Verlauf des Relais-\newline  stromes und der Steuer-\newline  spannung mit RC-Glied\relax }}{49}{figure.caption.30}\protected@file@percent }
\newlabel{fig:vt_sim_kennl_mitRC}{{3.13}{49}{Verlauf des Relais-\newline stromes und der Steuer-\newline spannung mit RC-Glied\relax }{figure.caption.30}{}}
\newlabel{fig:vt_sim_kennl_mitRC@cref}{{[figure][13][3]3.13}{[1][48][]49}}
\@writefile{lof}{\contentsline {figure}{\numberline {3.14}{\ignorespaces Stromverlauf der Diode\newline  D1 mit RC-Glied\relax }}{49}{figure.caption.30}\protected@file@percent }
\newlabel{fig:vt_sim_kennl_d1_mitRC}{{3.14}{49}{Stromverlauf der Diode\newline D1 mit RC-Glied\relax }{figure.caption.30}{}}
\newlabel{fig:vt_sim_kennl_d1_mitRC@cref}{{[figure][14][3]3.14}{[1][48][]49}}
\abx@aux@cite{anleitung_zylinder}
\abx@aux@segm{0}{0}{anleitung_zylinder}
\abx@aux@segm{0}{0}{anleitung_zylinder}
\abx@aux@segm{0}{0}{anleitung_zylinder}
\@writefile{toc}{\contentsline {subsection}{\numberline {3.2.2}Spezifikation der anderen Elektronik}{50}{subsection.3.2.2}\protected@file@percent }
\newlabel{elektrik}{{3.2.2}{50}{Spezifikation der anderen Elektronik}{subsection.3.2.2}{}}
\newlabel{elektrik@cref}{{[subsection][2][3,2]3.2.2}{[1][49][]50}}
\abx@aux@cite{elektrotechnik}
\abx@aux@segm{0}{0}{elektrotechnik}
\@writefile{lof}{\contentsline {figure}{\numberline {3.15}{\ignorespaces Anschlussm\IeC {\"o}glichkeiten des Dampfzylinders (nach \cite {anleitung_zylinder})\relax }}{51}{figure.caption.31}\protected@file@percent }
\newlabel{fig:anschlussdiagramm}{{3.15}{51}{Anschlussmöglichkeiten des Dampfzylinders (nach \cite {anleitung_zylinder})\relax }{figure.caption.31}{}}
\newlabel{fig:anschlussdiagramm@cref}{{[figure][15][3]3.15}{[1][50][]51}}
\@writefile{lot}{\contentsline {table}{\numberline {3.3}{\ignorespaces Messergebnisse f\IeC {\"u}r die Bestimmung des Betriebsstromes des Zylinders\relax }}{51}{table.caption.32}\protected@file@percent }
\newlabel{messung_zylinder}{{3.3}{51}{Messergebnisse für die Bestimmung des Betriebsstromes des Zylinders\relax }{table.caption.32}{}}
\newlabel{messung_zylinder@cref}{{[table][3][3]3.3}{[1][51][]51}}
\BKM@entry{id=16,dest={73756273656374696F6E2E332E322E33},srcline={233}}{506C6174696E656E6C61796F757420756E642064657220536368616C746B617374656E}
\@writefile{toc}{\contentsline {subsection}{\numberline {3.2.3}Platinenlayout und der Schaltkasten}{53}{subsection.3.2.3}\protected@file@percent }
\newlabel{platinenlayout}{{3.2.3}{53}{Platinenlayout und der Schaltkasten}{subsection.3.2.3}{}}
\newlabel{platinenlayout@cref}{{[subsection][3][3,2]3.2.3}{[1][53][]53}}
\@writefile{lof}{\contentsline {figure}{\numberline {3.16}{\ignorespaces KiCad-Modell der Plantinenvorderseite\relax }}{54}{figure.caption.33}\protected@file@percent }
\newlabel{fig:platine_modell_vorne}{{3.16}{54}{KiCad-Modell der Plantinenvorderseite\relax }{figure.caption.33}{}}
\newlabel{fig:platine_modell_vorne@cref}{{[figure][16][3]3.16}{[1][53][]54}}
\@writefile{lof}{\contentsline {figure}{\numberline {3.17}{\ignorespaces KiCad-Modell der Plantinenr\IeC {\"u}ckseite\relax }}{54}{figure.caption.34}\protected@file@percent }
\newlabel{fig:platine_modell_hinten}{{3.17}{54}{KiCad-Modell der Plantinenrückseite\relax }{figure.caption.34}{}}
\newlabel{fig:platine_modell_hinten@cref}{{[figure][17][3]3.17}{[1][53][]54}}
\BKM@entry{id=17,dest={73656374696F6E2E332E33},srcline={251}}{4665686C6572737563686520756E6420496E626574726965626E61686D65}
\@writefile{toc}{\contentsline {section}{\numberline {3.3}Fehlersuche und Inbetriebnahme}{55}{section.3.3}\protected@file@percent }
\newlabel{fehlersuche}{{3.3}{55}{Fehlersuche und Inbetriebnahme}{section.3.3}{}}
\newlabel{fehlersuche@cref}{{[section][3][3]3.3}{[1][55][]55}}
\abx@aux@segm{0}{0}{uC_USB}
\abx@aux@cite{VBUS}
\abx@aux@segm{0}{0}{VBUS}
\abx@aux@segm{0}{0}{VBUS}
\abx@aux@segm{0}{0}{elektrotechnik}
\@writefile{lof}{\contentsline {figure}{\numberline {3.18}{\ignorespaces Schaltung f\IeC {\"u}r Self-Powered Anwendung f\IeC {\"u}r STM32 \cite {VBUS}\relax }}{57}{figure.caption.35}\protected@file@percent }
\newlabel{fig:VBUS}{{3.18}{57}{Schaltung für Self-Powered Anwendung für STM32 \cite {VBUS}\relax }{figure.caption.35}{}}
\newlabel{fig:VBUS@cref}{{[figure][18][3]3.18}{[1][56][]57}}
\@writefile{lof}{\contentsline {figure}{\numberline {3.19}{\ignorespaces Stromweg in der Detektorschaltung bei eingeschalteten Dampfzylinder\relax }}{59}{figure.caption.36}\protected@file@percent }
\newlabel{fig:stromweg}{{3.19}{59}{Stromweg in der Detektorschaltung bei eingeschalteten Dampfzylinder\relax }{figure.caption.36}{}}
\newlabel{fig:stromweg@cref}{{[figure][19][3]3.19}{[1][58][]59}}
\BKM@entry{id=18,dest={73656374696F6E2E332E34},srcline={297}}{417262656974736D697474656C3A20536F667477617265}
\abx@aux@cite{atollic}
\abx@aux@segm{0}{0}{atollic}
\abx@aux@cite{cubeMX}
\abx@aux@segm{0}{0}{cubeMX}
\abx@aux@cite{hterm}
\abx@aux@segm{0}{0}{hterm}
\abx@aux@cite{vs_doku}
\abx@aux@segm{0}{0}{vs_doku}
\abx@aux@cite{csharp_doku}
\abx@aux@segm{0}{0}{csharp_doku}
\@writefile{lof}{\contentsline {figure}{\numberline {3.20}{\ignorespaces Wasserwiderstands\IeC {\"a}nderung bei einer Erw\IeC {\"a}rmung um $78,\tmspace  -\thinmuskip {.1667em}2\tmspace  +\thinmuskip {.1667em}K$\relax }}{64}{figure.caption.37}\protected@file@percent }
\newlabel{fig:Wassererwaermung}{{3.20}{64}{Wasserwiderstandsänderung bei einer Erwärmung um $78,\!2\,K$\relax }{figure.caption.37}{}}
\newlabel{fig:Wassererwaermung@cref}{{[figure][20][3]3.20}{[1][61][]64}}
\@writefile{toc}{\contentsline {section}{\numberline {3.4}Arbeitsmittel: Software}{64}{section.3.4}\protected@file@percent }
\newlabel{arbeitsmittel}{{3.4}{64}{Arbeitsmittel: Software}{section.3.4}{}}
\newlabel{arbeitsmittel@cref}{{[section][4][3]3.4}{[1][64][]64}}
\BKM@entry{id=19,dest={73656374696F6E2E332E35},srcline={309}}{536B697A7A652064657320476573616D7470726F6A656B746573}
\@writefile{toc}{\contentsline {section}{\numberline {3.5}Skizze des Gesamtprojektes}{65}{section.3.5}\protected@file@percent }
\newlabel{projektskizze}{{3.5}{65}{Skizze des Gesamtprojektes}{section.3.5}{}}
\newlabel{projektskizze@cref}{{[section][5][3]3.5}{[1][65][]65}}
\@writefile{lof}{\contentsline {figure}{\numberline {3.21}{\ignorespaces Gesamtsystem\relax }}{66}{figure.caption.38}\protected@file@percent }
\newlabel{fig:gesamtsystem}{{3.21}{66}{Gesamtsystem\relax }{figure.caption.38}{}}
\newlabel{fig:gesamtsystem@cref}{{[figure][21][3]3.21}{[1][65][]66}}
\BKM@entry{id=20,dest={73656374696F6E2E332E36},srcline={327}}{526973696B6F626575727465696C756E67}
\@writefile{toc}{\contentsline {section}{\numberline {3.6}Risikobeurteilung}{67}{section.3.6}\protected@file@percent }
\newlabel{risiko}{{3.6}{67}{Risikobeurteilung}{section.3.6}{}}
\newlabel{risiko@cref}{{[section][6][3]3.6}{[1][67][]67}}
\@writefile{lot}{\contentsline {table}{\numberline {3.4}{\ignorespaces Zusammenfassung der Risiko- und Fehlerbeurteilung\relax }}{67}{table.caption.39}\protected@file@percent }
\newlabel{risikotabelle}{{3.4}{67}{Zusammenfassung der Risiko- und Fehlerbeurteilung\relax }{table.caption.39}{}}
\newlabel{risikotabelle@cref}{{[table][4][3]3.4}{[1][67][]67}}
\BKM@entry{id=21,dest={73656374696F6E2E332E37},srcline={369}}{4B6F7374656E6265747261636874756E67}
\@writefile{toc}{\contentsline {section}{\numberline {3.7}Kostenbetrachtung}{68}{section.3.7}\protected@file@percent }
\newlabel{kosten}{{3.7}{68}{Kostenbetrachtung}{section.3.7}{}}
\newlabel{kosten@cref}{{[section][7][3]3.7}{[1][68][]68}}
\@writefile{lot}{\contentsline {table}{\numberline {3.5}{\ignorespaces Kosten\IeC {\"u}bersicht des Projektes\relax }}{68}{table.caption.40}\protected@file@percent }
\newlabel{kosten_grob}{{3.5}{68}{Kostenübersicht des Projektes\relax }{table.caption.40}{}}
\newlabel{kosten_grob@cref}{{[table][5][3]3.5}{[1][68][]68}}
\BKM@entry{id=22,dest={636861707465722E34},srcline={1}}{53797374656D626573636872656962756E67}
\BKM@entry{id=23,dest={73656374696F6E2E342E31},srcline={3}}{446173204C7566746665756368746573797374656D}
\BKM@entry{id=24,dest={73756273656374696F6E2E342E312E31},srcline={4}}{4D656368616E696B20756E6420456C656B7472696B}
\@writefile{toc}{\contentsline {chapter}{\numberline {4}Systembeschreibung}{69}{chapter.4}\protected@file@percent }
\@writefile{lof}{\addvspace {10\p@ }}
\@writefile{lot}{\addvspace {10\p@ }}
\@writefile{alof}{\addvspace {10\p@ }}
\newlabel{systembeschreibung}{{4}{69}{Systembeschreibung}{chapter.4}{}}
\newlabel{systembeschreibung@cref}{{[chapter][4][]4}{[1][69][]69}}
\@writefile{toc}{\contentsline {section}{\numberline {4.1}Das Luftfeuchtesystem}{69}{section.4.1}\protected@file@percent }
\newlabel{dampferzeugung}{{4.1}{69}{Das Luftfeuchtesystem}{section.4.1}{}}
\newlabel{dampferzeugung@cref}{{[section][1][4]4.1}{[1][69][]69}}
\@writefile{toc}{\contentsline {subsection}{\numberline {4.1.1}Mechanik und Elektrik}{69}{subsection.4.1.1}\protected@file@percent }
\newlabel{system_elektrik}{{4.1.1}{69}{Mechanik und Elektrik}{subsection.4.1.1}{}}
\newlabel{system_elektrik@cref}{{[subsection][1][4,1]4.1.1}{[1][69][]69}}
\@writefile{lof}{\contentsline {figure}{\numberline {4.1}{\ignorespaces Dampferzeugung und Dampfsteuer Komplex ohne Geh\IeC {\"a}use\relax }}{70}{figure.caption.41}\protected@file@percent }
\newlabel{fig:realGesamtsystem}{{4.1}{70}{Dampferzeugung und Dampfsteuer Komplex ohne Gehäuse\relax }{figure.caption.41}{}}
\newlabel{fig:realGesamtsystem@cref}{{[figure][1][4]4.1}{[1][70][]70}}
\abx@aux@segm{0}{0}{anleitung_zylinder}
\@writefile{lof}{\contentsline {figure}{\numberline {4.2}{\ignorespaces Schaltkasten\relax }}{71}{figure.caption.42}\protected@file@percent }
\newlabel{fig:schaltkasten}{{4.2}{71}{Schaltkasten\relax }{figure.caption.42}{}}
\newlabel{fig:schaltkasten@cref}{{[figure][2][4]4.2}{[1][70][]71}}
\BKM@entry{id=25,dest={73756273656374696F6E2E342E312E32},srcline={44}}{4D696B726F636F6E74726F6C6C65722050726F6772616D6D696572756E67}
\@writefile{toc}{\contentsline {subsection}{\numberline {4.1.2}Mikrocontroller Programmierung}{73}{subsection.4.1.2}\protected@file@percent }
\newlabel{ucProgram}{{4.1.2}{73}{Mikrocontroller Programmierung}{subsection.4.1.2}{}}
\newlabel{ucProgram@cref}{{[subsection][2][4,1]4.1.2}{[1][73][]73}}
\@writefile{lof}{\contentsline {figure}{\numberline {4.3}{\ignorespaces Funktion f\IeC {\"u}r die Timer Initialisierung\relax }}{74}{figure.caption.43}\protected@file@percent }
\newlabel{fig:timerInit}{{4.3}{74}{Funktion für die Timer Initialisierung\relax }{figure.caption.43}{}}
\newlabel{fig:timerInit@cref}{{[figure][3][4]4.3}{[1][73][]74}}
\abx@aux@segm{0}{0}{si7021}
\newlabel{Timer}{{4.1}{75}{Mikrocontroller Programmierung}{equation.4.1.1}{}}
\newlabel{Timer@cref}{{[equation][1][4]4.1}{[1][74][]75}}
\newlabel{si7021Formeln}{{4.2}{75}{Mikrocontroller Programmierung}{equation.4.1.2}{}}
\newlabel{si7021Formeln@cref}{{[subequation][2][4]4.2}{[1][75][]75}}
\BKM@entry{id=26,dest={73656374696F6E2E342E32},srcline={111}}{4461732054656D7065726174757273797374656D}
\@writefile{lot}{\contentsline {table}{\numberline {4.1}{\ignorespaces LED's am Schaltkasten\relax }}{77}{table.caption.44}\protected@file@percent }
\newlabel{LED_Bedeutung}{{4.1}{77}{LED's am Schaltkasten\relax }{table.caption.44}{}}
\newlabel{LED_Bedeutung@cref}{{[table][1][4]4.1}{[1][76][]77}}
\@writefile{lot}{\contentsline {table}{\numberline {4.2}{\ignorespaces Bedeutung der LED's\relax }}{77}{table.caption.45}\protected@file@percent }
\newlabel{LED_Bedeutung2}{{4.2}{77}{Bedeutung der LED's\relax }{table.caption.45}{}}
\newlabel{LED_Bedeutung2@cref}{{[table][2][4]4.2}{[1][77][]77}}
\BKM@entry{id=27,dest={73656374696F6E2E342E33},srcline={114}}{446965205265676C6572}
\BKM@entry{id=28,dest={73756273656374696F6E2E342E332E31},srcline={115}}{54656D706572617475727265676C6572}
\@writefile{toc}{\contentsline {section}{\numberline {4.2}Das Temperatursystem}{78}{section.4.2}\protected@file@percent }
\newlabel{temperaturerzeugung}{{4.2}{78}{Das Temperatursystem}{section.4.2}{}}
\newlabel{temperaturerzeugung@cref}{{[section][2][4]4.2}{[1][77][]78}}
\@writefile{toc}{\contentsline {section}{\numberline {4.3}Die Regler}{78}{section.4.3}\protected@file@percent }
\newlabel{systemsteuerung_regelung}{{4.3}{78}{Die Regler}{section.4.3}{}}
\newlabel{systemsteuerung_regelung@cref}{{[section][3][4]4.3}{[1][78][]78}}
\@writefile{toc}{\contentsline {subsection}{\numberline {4.3.1}Temperaturregler}{78}{subsection.4.3.1}\protected@file@percent }
\newlabel{regler_temp}{{4.3.1}{78}{Temperaturregler}{subsection.4.3.1}{}}
\newlabel{regler_temp@cref}{{[subsection][1][4,3]4.3.1}{[1][78][]78}}
\@writefile{lof}{\contentsline {figure}{\numberline {4.4}{\ignorespaces Sprungantwort des Temperatursystems\relax }}{79}{figure.caption.46}\protected@file@percent }
\newlabel{fig:sprungantwortTemp_grob}{{4.4}{79}{Sprungantwort des Temperatursystems\relax }{figure.caption.46}{}}
\newlabel{fig:sprungantwortTemp_grob@cref}{{[figure][4][4]4.4}{[1][78][]79}}
\@writefile{lot}{\contentsline {table}{\numberline {4.3}{\ignorespaces Berechnete Werte nach den Einstellregeln der Tabelle \ref  {einstellregeln}\relax }}{80}{table.caption.47}\protected@file@percent }
\newlabel{ergebnisse_temp}{{4.3}{80}{Berechnete Werte nach den Einstellregeln der Tabelle \ref {einstellregeln}\relax }{table.caption.47}{}}
\newlabel{ergebnisse_temp@cref}{{[table][3][4]4.3}{[1][79][]80}}
\BKM@entry{id=29,dest={73756273656374696F6E2E342E332E32},srcline={152}}{466575636874657265676C6572}
\@writefile{lof}{\contentsline {figure}{\numberline {4.5}{\ignorespaces Temperaturkurve des PID-Reglers nach Ziegler/Nichols f\IeC {\"u}r eine Temperatursenkung\relax }}{81}{figure.caption.48}\protected@file@percent }
\newlabel{fig:reglerTemp_ZN}{{4.5}{81}{Temperaturkurve des PID-Reglers nach Ziegler/Nichols für eine Temperatursenkung\relax }{figure.caption.48}{}}
\newlabel{fig:reglerTemp_ZN@cref}{{[figure][5][4]4.5}{[1][80][]81}}
\@writefile{lof}{\contentsline {figure}{\numberline {4.6}{\ignorespaces Temperaturkurve des PID-Reglers nach T-Summen-Regel f\IeC {\"u}r eine Temperatursenkung\relax }}{81}{figure.caption.49}\protected@file@percent }
\newlabel{fig:reglerTemp_T}{{4.6}{81}{Temperaturkurve des PID-Reglers nach T-Summen-Regel für eine Temperatursenkung\relax }{figure.caption.49}{}}
\newlabel{fig:reglerTemp_T@cref}{{[figure][6][4]4.6}{[1][81][]81}}
\@writefile{toc}{\contentsline {subsection}{\numberline {4.3.2}Feuchteregler}{82}{subsection.4.3.2}\protected@file@percent }
\newlabel{regler_feuchte}{{4.3.2}{82}{Feuchteregler}{subsection.4.3.2}{}}
\newlabel{regler_feuchte@cref}{{[subsection][2][4,3]4.3.2}{[1][81][]82}}
\@writefile{lof}{\contentsline {figure}{\numberline {4.7}{\ignorespaces Sprungantwort des Feuchtigkeitssystems f\IeC {\"u}r Befeuchtung und Entfeuchtung\relax }}{82}{figure.caption.50}\protected@file@percent }
\newlabel{fig:antwort_humi}{{4.7}{82}{Sprungantwort des Feuchtigkeitssystems für Befeuchtung und Entfeuchtung\relax }{figure.caption.50}{}}
\newlabel{fig:antwort_humi@cref}{{[figure][7][4]4.7}{[1][81][]82}}
\@writefile{lof}{\contentsline {figure}{\numberline {4.8}{\ignorespaces Feuchtigkeitskurve der PWM-Regelung\relax }}{84}{figure.caption.51}\protected@file@percent }
\newlabel{fig:regler_fertig_humi}{{4.8}{84}{Feuchtigkeitskurve der PWM-Regelung\relax }{figure.caption.51}{}}
\newlabel{fig:regler_fertig_humi@cref}{{[figure][8][4]4.8}{[1][82][]84}}
\BKM@entry{id=30,dest={73756273656374696F6E2E342E332E33},srcline={176}}{5A7573616D6D656E665C3337346872756E6720646572205265676C657220756E6420646572656E2050726F6772616D6D636F6465}
\@writefile{lof}{\contentsline {figure}{\numberline {4.9}{\ignorespaces Feuchte Regelkurve ohne Schwellwert und Offset\relax }}{85}{figure.caption.52}\protected@file@percent }
\newlabel{fig:regler_anfang_humi}{{4.9}{85}{Feuchte Regelkurve ohne Schwellwert und Offset\relax }{figure.caption.52}{}}
\newlabel{fig:regler_anfang_humi@cref}{{[figure][9][4]4.9}{[1][84][]85}}
\@writefile{toc}{\contentsline {subsection}{\numberline {4.3.3}Zusammenf\IeC {\"u}hrung der Regler und deren Programmcode}{85}{subsection.4.3.3}\protected@file@percent }
\newlabel{code_regler_real}{{4.3.3}{85}{Zusammenführung der Regler und deren Programmcode}{subsection.4.3.3}{}}
\newlabel{code_regler_real@cref}{{[subsection][3][4,3]4.3.3}{[1][85][]85}}
\@writefile{lof}{\contentsline {figure}{\numberline {4.10}{\ignorespaces Flussdiagramm der PWM\relax }}{87}{figure.caption.53}\protected@file@percent }
\newlabel{fig:Ablauf_PWM}{{4.10}{87}{Flussdiagramm der PWM\relax }{figure.caption.53}{}}
\newlabel{fig:Ablauf_PWM@cref}{{[figure][10][4]4.10}{[1][85][]87}}
\@writefile{lof}{\contentsline {figure}{\numberline {4.11}{\ignorespaces Flussdiagramm des Regelalgorithmus\relax }}{88}{figure.caption.54}\protected@file@percent }
\newlabel{fig:Ablauf_PID}{{4.11}{88}{Flussdiagramm des Regelalgorithmus\relax }{figure.caption.54}{}}
\newlabel{fig:Ablauf_PID@cref}{{[figure][11][4]4.11}{[1][87][]88}}
\BKM@entry{id=31,dest={73656374696F6E2E342E34},srcline={192}}{4461732050726F6772616D6D20756E64206469652042656E75747A65726F626572666C5C333434636865}
\@writefile{toc}{\contentsline {section}{\numberline {4.4}Das Programm und die Benutzeroberfl\IeC {\"a}che}{89}{section.4.4}\protected@file@percent }
\newlabel{programm}{{4.4}{89}{Das Programm und die Benutzeroberfläche}{section.4.4}{}}
\newlabel{programm@cref}{{[section][4][4]4.4}{[1][89][]89}}
\@writefile{lof}{\contentsline {figure}{\numberline {4.12}{\ignorespaces Flussdiagramm der Programminitialisierung\relax }}{91}{figure.caption.55}\protected@file@percent }
\newlabel{fig:GUI_Init}{{4.12}{91}{Flussdiagramm der Programminitialisierung\relax }{figure.caption.55}{}}
\newlabel{fig:GUI_Init@cref}{{[figure][12][4]4.12}{[1][90][]91}}
\@writefile{lof}{\contentsline {figure}{\numberline {4.13}{\ignorespaces Flussdiagramm f\IeC {\"u}r den Button: ...\relax }}{92}{figure.caption.56}\protected@file@percent }
\newlabel{fig:GUI_...}{{4.13}{92}{Flussdiagramm für den Button: ...\relax }{figure.caption.56}{}}
\newlabel{fig:GUI_...@cref}{{[figure][13][4]4.13}{[1][92][]92}}
\BKM@entry{id=32,dest={73756273656374696F6E2E342E342E31},srcline={228}}{5461623A20526567656C77657274}
\@writefile{lof}{\contentsline {figure}{\numberline {4.14}{\ignorespaces Flussdiagramm f\IeC {\"u}r den Button: Verbinden\relax }}{93}{figure.caption.57}\protected@file@percent }
\newlabel{fig:GUI_Verbinden}{{4.14}{93}{Flussdiagramm für den Button: Verbinden\relax }{figure.caption.57}{}}
\newlabel{fig:GUI_Verbinden@cref}{{[figure][14][4]4.14}{[1][92][]93}}
\@writefile{toc}{\contentsline {subsection}{\numberline {4.4.1}Tab: Regelwert}{94}{subsection.4.4.1}\protected@file@percent }
\newlabel{tab1}{{4.4.1}{94}{Tab: Regelwert}{subsection.4.4.1}{}}
\newlabel{tab1@cref}{{[subsection][1][4,4]4.4.1}{[1][93][]94}}
\@writefile{lof}{\contentsline {figure}{\numberline {4.15}{\ignorespaces Tab: Regelwert der Benutzeroberfl\IeC {\"a}che des Programms\relax }}{94}{figure.caption.58}\protected@file@percent }
\newlabel{fig:GUI_Tab1}{{4.15}{94}{Tab: Regelwert der Benutzeroberfläche des Programms\relax }{figure.caption.58}{}}
\newlabel{fig:GUI_Tab1@cref}{{[figure][15][4]4.15}{[1][93][]94}}
\BKM@entry{id=33,dest={73756273656374696F6E2E342E342E32},srcline={242}}{5461623A20526567656C6B75727665}
\@writefile{lof}{\contentsline {figure}{\numberline {4.16}{\ignorespaces Allgemeines Flussdiagramm f\IeC {\"u}r die Ver\IeC {\"a}nderung der Sollwerte in den Textfeldern\relax }}{95}{figure.caption.59}\protected@file@percent }
\newlabel{fig:ablauf_textfeld}{{4.16}{95}{Allgemeines Flussdiagramm für die Veränderung der Sollwerte in den Textfeldern\relax }{figure.caption.59}{}}
\newlabel{fig:ablauf_textfeld@cref}{{[figure][16][4]4.16}{[1][94][]95}}
\@writefile{toc}{\contentsline {subsection}{\numberline {4.4.2}Tab: Regelkurve}{96}{subsection.4.4.2}\protected@file@percent }
\newlabel{tab2}{{4.4.2}{96}{Tab: Regelkurve}{subsection.4.4.2}{}}
\newlabel{tab2@cref}{{[subsection][2][4,4]4.4.2}{[1][95][]96}}
\@writefile{lof}{\contentsline {figure}{\numberline {4.17}{\ignorespaces Tab: Regelkurve der Benutzeroberfl\IeC {\"a}che des Programms\relax }}{96}{figure.caption.60}\protected@file@percent }
\newlabel{fig:GUI_Tab2}{{4.17}{96}{Tab: Regelkurve der Benutzeroberfläche des Programms\relax }{figure.caption.60}{}}
\newlabel{fig:GUI_Tab2@cref}{{[figure][17][4]4.17}{[1][95][]96}}
\@writefile{lof}{\contentsline {figure}{\numberline {4.18}{\ignorespaces Flussdiagramm f\IeC {\"u}r den Start-Button im zweiten Tab der GUI\relax }}{98}{figure.caption.61}\protected@file@percent }
\newlabel{fig:button_start_kurve}{{4.18}{98}{Flussdiagramm für den Start-Button im zweiten Tab der GUI\relax }{figure.caption.61}{}}
\newlabel{fig:button_start_kurve@cref}{{[figure][18][4]4.18}{[1][96][]98}}
\@writefile{lof}{\contentsline {figure}{\numberline {4.19}{\ignorespaces Flussdiagramm f\IeC {\"u}r den Stop-Button im zweiten Tab der GUI\relax }}{99}{figure.caption.62}\protected@file@percent }
\newlabel{fig:button_stop_kurve}{{4.19}{99}{Flussdiagramm für den Stop-Button im zweiten Tab der GUI\relax }{figure.caption.62}{}}
\newlabel{fig:button_stop_kurve@cref}{{[figure][19][4]4.19}{[1][97][]99}}
\@writefile{lof}{\contentsline {figure}{\numberline {4.20}{\ignorespaces Flussdiagramm f\IeC {\"u}r den Laden-Button im zweiten Tab der GUI\relax }}{100}{figure.caption.63}\protected@file@percent }
\newlabel{fig:button_laden_kurve}{{4.20}{100}{Flussdiagramm für den Laden-Button im zweiten Tab der GUI\relax }{figure.caption.63}{}}
\newlabel{fig:button_laden_kurve@cref}{{[figure][20][4]4.20}{[1][99][]100}}
\BKM@entry{id=34,dest={73756273656374696F6E2E342E342E33},srcline={269}}{5461623A204B6F6E66696775726174696F6E}
\@writefile{toc}{\contentsline {subsection}{\numberline {4.4.3}Tab: Konfiguration}{101}{subsection.4.4.3}\protected@file@percent }
\newlabel{tab3}{{4.4.3}{101}{Tab: Konfiguration}{subsection.4.4.3}{}}
\newlabel{tab3@cref}{{[subsection][3][4,4]4.4.3}{[1][101][]101}}
\@writefile{lof}{\contentsline {figure}{\numberline {4.21}{\ignorespaces Tab: Konfiguration der Benutzeroberfl\IeC {\"a}che des Programms\relax }}{101}{figure.caption.64}\protected@file@percent }
\newlabel{fig:GUI_Tab3}{{4.21}{101}{Tab: Konfiguration der Benutzeroberfläche des Programms\relax }{figure.caption.64}{}}
\newlabel{fig:GUI_Tab3@cref}{{[figure][21][4]4.21}{[1][101][]101}}
\@writefile{lof}{\contentsline {figure}{\numberline {4.22}{\ignorespaces Inhalt der Konfigurationsdatei\relax }}{102}{figure.caption.65}\protected@file@percent }
\newlabel{fig:json_txt}{{4.22}{102}{Inhalt der Konfigurationsdatei\relax }{figure.caption.65}{}}
\newlabel{fig:json_txt@cref}{{[figure][22][4]4.22}{[1][101][]102}}
\BKM@entry{id=35,dest={73756273656374696F6E2E342E342E34},srcline={291}}{5461623A2057617274756E67}
\@writefile{lof}{\contentsline {figure}{\numberline {4.23}{\ignorespaces Flussdiagramm f\IeC {\"u}r den Speichern-Button im dritten Tab der GUI\relax }}{103}{figure.caption.66}\protected@file@percent }
\newlabel{fig:button_speichern}{{4.23}{103}{Flussdiagramm für den Speichern-Button im dritten Tab der GUI\relax }{figure.caption.66}{}}
\newlabel{fig:button_speichern@cref}{{[figure][23][4]4.23}{[1][102][]103}}
\@writefile{toc}{\contentsline {subsection}{\numberline {4.4.4}Tab: Wartung}{104}{subsection.4.4.4}\protected@file@percent }
\newlabel{tab4}{{4.4.4}{104}{Tab: Wartung}{subsection.4.4.4}{}}
\newlabel{tab4@cref}{{[subsection][4][4,4]4.4.4}{[1][103][]104}}
\@writefile{lof}{\contentsline {figure}{\numberline {4.24}{\ignorespaces Tab: Wartung der Benutzeroberfl\IeC {\"a}che des Programms\relax }}{104}{figure.caption.67}\protected@file@percent }
\newlabel{fig:GUI_Tab4}{{4.24}{104}{Tab: Wartung der Benutzeroberfläche des Programms\relax }{figure.caption.67}{}}
\newlabel{fig:GUI_Tab4@cref}{{[figure][24][4]4.24}{[1][103][]104}}
\BKM@entry{id=36,dest={636861707465722E35},srcline={1}}{41627363686C69655C333337656E6465204D657373756E67656E}
\BKM@entry{id=37,dest={73656374696F6E2E352E31},srcline={2}}{53797374656D74657374}
\abx@aux@cite{DIN_Norm_Spek}
\abx@aux@segm{0}{0}{DIN_Norm_Spek}
\abx@aux@cite{lastwiderstand_datasheet}
\abx@aux@segm{0}{0}{lastwiderstand_datasheet}
\@writefile{toc}{\contentsline {chapter}{\numberline {5}Abschlie\IeC {\ss }ende Messungen}{105}{chapter.5}\protected@file@percent }
\@writefile{lof}{\addvspace {10\p@ }}
\@writefile{lot}{\addvspace {10\p@ }}
\@writefile{alof}{\addvspace {10\p@ }}
\newlabel{ergebnisse}{{5}{105}{Abschließende Messungen}{chapter.5}{}}
\newlabel{ergebnisse@cref}{{[chapter][5][]5}{[1][105][]105}}
\@writefile{toc}{\contentsline {section}{\numberline {5.1}Systemtest}{105}{section.5.1}\protected@file@percent }
\newlabel{systemtest}{{5.1}{105}{Systemtest}{section.5.1}{}}
\newlabel{systemtest@cref}{{[section][1][5]5.1}{[1][105][]105}}
\@writefile{lof}{\contentsline {figure}{\numberline {5.1}{\ignorespaces Kurven f\IeC {\"u}r Regelwert ohne SINUS-220\relax }}{106}{figure.caption.68}\protected@file@percent }
\newlabel{fig:Regelwert_ohneSINUS}{{5.1}{106}{Kurven für Regelwert ohne SINUS-220\relax }{figure.caption.68}{}}
\newlabel{fig:Regelwert_ohneSINUS@cref}{{[figure][1][5]5.1}{[1][105][]106}}
\@writefile{lof}{\contentsline {figure}{\numberline {5.2}{\ignorespaces Kurven f\IeC {\"u}r Regelwert mit SINUS-220\relax }}{107}{figure.caption.69}\protected@file@percent }
\newlabel{fig:Regelwert_mitSINUS}{{5.2}{107}{Kurven für Regelwert mit SINUS-220\relax }{figure.caption.69}{}}
\newlabel{fig:Regelwert_mitSINUS@cref}{{[figure][2][5]5.2}{[1][106][]107}}
\@writefile{lof}{\contentsline {figure}{\numberline {5.3}{\ignorespaces Kurven f\IeC {\"u}r Regelkurve ohne SINUS-220\relax }}{108}{figure.caption.70}\protected@file@percent }
\newlabel{fig:Regelkurve_ohneSINUS}{{5.3}{108}{Kurven für Regelkurve ohne SINUS-220\relax }{figure.caption.70}{}}
\newlabel{fig:Regelkurve_ohneSINUS@cref}{{[figure][3][5]5.3}{[1][107][]108}}
\@writefile{lof}{\contentsline {figure}{\numberline {5.4}{\ignorespaces Kurven f\IeC {\"u}r Regelkurve mit SINUS-220\relax }}{109}{figure.caption.71}\protected@file@percent }
\newlabel{fig:Regelkurve_mitSINUS}{{5.4}{109}{Kurven für Regelkurve mit SINUS-220\relax }{figure.caption.71}{}}
\newlabel{fig:Regelkurve_mitSINUS@cref}{{[figure][4][5]5.4}{[1][108][]109}}
\BKM@entry{id=38,dest={73656374696F6E2E352E32},srcline={41}}{45726765626E69737365}
\BKM@entry{id=39,dest={73756273656374696F6E2E352E322E31},srcline={43}}{417262656974736265726569636820646572206C656572656E204B6C696D616B616D6D6572}
\BKM@entry{id=40,dest={73756273656374696F6E2E352E322E32},srcline={61}}{4172626569747362657265696368206D6974206C617566656E64656D2053494E55532D323230}
\BKM@entry{id=41,dest={73656374696F6E2E352E33},srcline={79}}{566572676C65696368736D657373756E67656E}
\abx@aux@cite{datalogger}
\abx@aux@segm{0}{0}{datalogger}
\@writefile{toc}{\contentsline {section}{\numberline {5.2}Ergebnisse}{110}{section.5.2}\protected@file@percent }
\newlabel{ergebniss_test}{{5.2}{110}{Ergebnisse}{section.5.2}{}}
\newlabel{ergebniss_test@cref}{{[section][2][5]5.2}{[1][110][]110}}
\@writefile{toc}{\contentsline {subsection}{\numberline {5.2.1}Arbeitsbereich der leeren Klimakammer}{110}{subsection.5.2.1}\protected@file@percent }
\@writefile{lot}{\contentsline {table}{\numberline {5.1}{\ignorespaces Systemeigenschaften der leeren Klimakammer bei \ang {20}C Au\IeC {\ss }entemperatur\relax }}{110}{table.caption.72}\protected@file@percent }
\newlabel{grenzwerte_leer}{{5.1}{110}{Systemeigenschaften der leeren Klimakammer bei \ang {20}C Außentemperatur\relax }{table.caption.72}{}}
\newlabel{grenzwerte_leer@cref}{{[table][1][5]5.1}{[1][110][]110}}
\@writefile{toc}{\contentsline {subsection}{\numberline {5.2.2}Arbeitsbereich mit laufendem SINUS-220}{110}{subsection.5.2.2}\protected@file@percent }
\@writefile{lot}{\contentsline {table}{\numberline {5.2}{\ignorespaces Systemeigenschaften der Klimakammer mit SINUS-220 bei \ang {20}C Au\IeC {\ss }entemperatur\relax }}{110}{table.caption.73}\protected@file@percent }
\newlabel{grenzwerte_SINUS}{{5.2}{110}{Systemeigenschaften der Klimakammer mit SINUS-220 bei \ang {20}C Außentemperatur\relax }{table.caption.73}{}}
\newlabel{grenzwerte_SINUS@cref}{{[table][2][5]5.2}{[1][110][]110}}
\@writefile{toc}{\contentsline {section}{\numberline {5.3}Vergleichsmessungen}{111}{section.5.3}\protected@file@percent }
\newlabel{vergleich}{{5.3}{111}{Vergleichsmessungen}{section.5.3}{}}
\newlabel{vergleich@cref}{{[section][3][5]5.3}{[1][110][]111}}
\BKM@entry{id=42,dest={73656374696F6E2E352E34},srcline={94}}{41757377657274756E67}
\@writefile{lof}{\contentsline {figure}{\numberline {5.5}{\ignorespaces Messkurven des Datenloggers f\IeC {\"u}r Regelwert mit SINUS-220\relax }}{112}{figure.caption.74}\protected@file@percent }
\newlabel{fig:Regelwert_mitSINUS_Logger}{{5.5}{112}{Messkurven des Datenloggers für Regelwert mit SINUS-220\relax }{figure.caption.74}{}}
\newlabel{fig:Regelwert_mitSINUS_Logger@cref}{{[figure][5][5]5.5}{[1][110][]112}}
\@writefile{lof}{\contentsline {figure}{\numberline {5.6}{\ignorespaces Messkurven des Datenloggers f\IeC {\"u}r Regelkurve ohne SINUS-220\relax }}{112}{figure.caption.75}\protected@file@percent }
\newlabel{fig:Regelkurve_ohneSINUS_Logger}{{5.6}{112}{Messkurven des Datenloggers für Regelkurve ohne SINUS-220\relax }{figure.caption.75}{}}
\newlabel{fig:Regelkurve_ohneSINUS_Logger@cref}{{[figure][6][5]5.6}{[1][111][]112}}
\@writefile{toc}{\contentsline {section}{\numberline {5.4}Auswertung}{113}{section.5.4}\protected@file@percent }
\newlabel{auswertung}{{5.4}{113}{Auswertung}{section.5.4}{}}
\newlabel{auswertung@cref}{{[section][4][5]5.4}{[1][112][]113}}
\BKM@entry{id=43,dest={636861707465722E36},srcline={1}}{5265735C3337346D656520756E6420417573626C69636B}
\@writefile{toc}{\contentsline {chapter}{\numberline {6}Res\IeC {\"u}mee und Ausblick}{116}{chapter.6}\protected@file@percent }
\@writefile{lof}{\addvspace {10\p@ }}
\@writefile{lot}{\addvspace {10\p@ }}
\@writefile{alof}{\addvspace {10\p@ }}
\newlabel{fazit}{{6}{116}{Resümee und Ausblick}{chapter.6}{}}
\newlabel{fazit@cref}{{[chapter][6][]6}{[1][116][]116}}
\BKM@entry{id=44,dest={706172742A2E3830},srcline={192}}{416E68616E67}
\@writefile{toc}{\contentsline {part}{\nonumberline Anhang}{128}{part*.80}\protected@file@percent }
\abx@aux@cite{chiller_funkt}
\abx@aux@segm{0}{0}{chiller_funkt}
\abx@aux@cite{mollier_diag}
\abx@aux@segm{0}{0}{mollier_diag}
\abx@aux@cite{dz}
\abx@aux@segm{0}{0}{dz}
\abx@aux@segm{0}{0}{chiller_funkt}
\abx@aux@segm{0}{0}{chiller_funkt}
\abx@aux@segm{0}{0}{mollier_diag}
\abx@aux@segm{0}{0}{mollier_diag}
\abx@aux@segm{0}{0}{dz}
\abx@aux@segm{0}{0}{dz}
\@writefile{alof}{\contentsline {figure}{\numberline {1}{\ignorespaces Funktionsweise eines Chillers \cite {chiller_funkt}\relax }}{A-2}{figure.caption.83}\protected@file@percent }
\newlabel{fig:chiller_funkt}{{1}{A-2}{Funktionsweise eines Chillers \cite {chiller_funkt}\relax }{figure.caption.83}{}}
\newlabel{fig:chiller_funkt@cref}{{[figure][1][2147483647,0]1}{[A-1][1][]A-2}}
\@writefile{alof}{\contentsline {figure}{\numberline {2}{\ignorespaces Testaufbau der Mikrocontroller-Grundschaltung\relax }}{A-2}{figure.caption.84}\protected@file@percent }
\newlabel{fig:testaufbau_stm32}{{2}{A-2}{Testaufbau der Mikrocontroller-Grundschaltung\relax }{figure.caption.84}{}}
\newlabel{fig:testaufbau_stm32@cref}{{[figure][2][2147483647,0]2}{[A-1][1][]A-2}}
\@writefile{alof}{\contentsline {figure}{\numberline {3}{\ignorespaces Mollier h(x)-Diagramm \cite {mollier_diag}\relax }}{A-3}{figure.caption.85}\protected@file@percent }
\newlabel{fig:mollier_diag}{{3}{A-3}{Mollier h(x)-Diagramm \cite {mollier_diag}\relax }{figure.caption.85}{}}
\newlabel{fig:mollier_diag@cref}{{[figure][3][2147483647,0]3}{[A-1][1][]A-3}}
\@writefile{alof}{\contentsline {figure}{\numberline {4}{\ignorespaces Trotec Entfeuchter: TKK 30 E\relax }}{A-4}{figure.caption.86}\protected@file@percent }
\newlabel{fig:entfeuchter}{{4}{A-4}{Trotec Entfeuchter: TKK 30 E\relax }{figure.caption.86}{}}
\newlabel{fig:entfeuchter@cref}{{[figure][4][2147483647,0]4}{[A-1][1][]A-4}}
\@writefile{alof}{\contentsline {figure}{\numberline {5}{\ignorespaces Elektrodendampfzylinder BL0S2E00H2 \cite {dz}\relax }}{A-5}{figure.caption.87}\protected@file@percent }
\newlabel{fig:dz}{{5}{A-5}{Elektrodendampfzylinder BL0S2E00H2 \cite {dz}\relax }{figure.caption.87}{}}
\newlabel{fig:dz@cref}{{[figure][5][2147483647,0]5}{[A-1][1][]A-5}}
\@writefile{alof}{\contentsline {figure}{\numberline {6}{\ignorespaces Spannungsverlauf der Detektorschaltung Variante B am Ausgang uC bei R1=100$k\Omega $ und R5=100$k\Omega $\relax }}{A-6}{figure.caption.88}\protected@file@percent }
\newlabel{fig:det2_R5100k}{{6}{A-6}{Spannungsverlauf der Detektorschaltung Variante B am Ausgang uC bei R1=100$k\Omega $ und R5=100$k\Omega $\relax }{figure.caption.88}{}}
\newlabel{fig:det2_R5100k@cref}{{[figure][6][2147483647,0]6}{[A-1][1][]A-6}}
\@writefile{alof}{\contentsline {figure}{\numberline {7}{\ignorespaces Spannungsverlauf der Detektorschaltung Variante B am Ausgang uC bei R1=100$k\Omega $ und R5=300$k\Omega $\relax }}{A-6}{figure.caption.89}\protected@file@percent }
\newlabel{fig:det2_R5300k}{{7}{A-6}{Spannungsverlauf der Detektorschaltung Variante B am Ausgang uC bei R1=100$k\Omega $ und R5=300$k\Omega $\relax }{figure.caption.89}{}}
\newlabel{fig:det2_R5300k@cref}{{[figure][7][2147483647,0]7}{[A-1][1][]A-6}}
\@writefile{alof}{\contentsline {figure}{\numberline {8}{\ignorespaces Schaltung f\IeC {\"u}r die Dampfzylinderrelaisansteuerung\relax }}{A-7}{figure.caption.90}\protected@file@percent }
\newlabel{fig:dz_sim_schalt_mitRC}{{8}{A-7}{Schaltung für die Dampfzylinderrelaisansteuerung\relax }{figure.caption.90}{}}
\newlabel{fig:dz_sim_schalt_mitRC@cref}{{[figure][8][2147483647,0]8}{[A-1][1][]A-7}}
\@writefile{alof}{\contentsline {figure}{\numberline {9}{\ignorespaces Best\IeC {\"u}ckte Platinenvorderseite\relax }}{A-7}{figure.caption.91}\protected@file@percent }
\newlabel{fig:realePlatine}{{9}{A-7}{Bestückte Platinenvorderseite\relax }{figure.caption.91}{}}
\newlabel{fig:realePlatine@cref}{{[figure][9][2147483647,0]9}{[A-1][1][]A-7}}
\@writefile{alof}{\contentsline {figure}{\numberline {10}{\ignorespaces Gesamter Schaltplan f\IeC {\"u}r die Steuerplatine\relax }}{A-8}{figure.caption.92}\protected@file@percent }
\newlabel{fig:gesSchaltplan_platine}{{10}{A-8}{Gesamter Schaltplan für die Steuerplatine\relax }{figure.caption.92}{}}
\newlabel{fig:gesSchaltplan_platine@cref}{{[figure][10][2147483647,0]10}{[A-1][8][]A-8}}
\@writefile{alof}{\contentsline {figure}{\numberline {11}{\ignorespaces Block-Diagramm des Mean Well-Netzteils: LRS-35-12\relax }}{A-9}{figure.caption.93}\protected@file@percent }
\newlabel{fig:neuesNetzteil_galv}{{11}{A-9}{Block-Diagramm des Mean Well-Netzteils: LRS-35-12\relax }{figure.caption.93}{}}
\newlabel{fig:neuesNetzteil_galv@cref}{{[figure][11][2147483647,0]11}{[A-1][8][]A-9}}
\@writefile{alof}{\contentsline {figure}{\numberline {12}{\ignorespaces Vollst\IeC {\"a}ndige Dampferzeugungsanlage\relax }}{A-10}{figure.caption.94}\protected@file@percent }
\newlabel{fig:dampfsystem_mitDeckel}{{12}{A-10}{Vollständige Dampferzeugungsanlage\relax }{figure.caption.94}{}}
\newlabel{fig:dampfsystem_mitDeckel@cref}{{[figure][12][2147483647,0]12}{[A-1][10][]A-10}}
\@writefile{alof}{\contentsline {figure}{\numberline {13}{\ignorespaces Protokoll der Elektrosicherheitspr\IeC {\"u}fung\relax }}{A-11}{figure.caption.95}\protected@file@percent }
\newlabel{fig:sicherheitspruefung}{{13}{A-11}{Protokoll der Elektrosicherheitsprüfung\relax }{figure.caption.95}{}}
\newlabel{fig:sicherheitspruefung@cref}{{[figure][13][2147483647,0]13}{[A-1][10][]A-11}}
\@writefile{alof}{\contentsline {figure}{\numberline {14}{\ignorespaces Pinbelegung des Mikrocontrollers\relax }}{A-12}{figure.caption.96}\protected@file@percent }
\newlabel{fig:MCU_Pins}{{14}{A-12}{Pinbelegung des Mikrocontrollers\relax }{figure.caption.96}{}}
\newlabel{fig:MCU_Pins@cref}{{[figure][14][2147483647,0]14}{[A-1][10][]A-12}}
\@writefile{alof}{\contentsline {figure}{\numberline {15}{\ignorespaces Codezeilen f\IeC {\"u}r die Kommunikation mit dem Sensor Si7021,\newline  sowie die Berechnung und das Senden der Daten\relax }}{A-13}{figure.caption.97}\protected@file@percent }
\newlabel{fig:Code_SendenDATA}{{15}{A-13}{Codezeilen für die Kommunikation mit dem Sensor Si7021,\newline sowie die Berechnung und das Senden der Daten\relax }{figure.caption.97}{}}
\newlabel{fig:Code_SendenDATA@cref}{{[figure][15][2147483647,0]15}{[A-1][10][]A-13}}
\@writefile{alof}{\contentsline {figure}{\numberline {16}{\ignorespaces Codezeilen f\IeC {\"u}r das Steuern der Pins in Abh\IeC {\"a}ngigkeit von der Variable \glqq Status\grqq \relax }}{A-14}{figure.caption.98}\protected@file@percent }
\newlabel{fig:Code_PinsSetzen}{{16}{A-14}{Codezeilen für das Steuern der Pins in Abhängigkeit von der Variable \glqq Status\grqq \relax }{figure.caption.98}{}}
\newlabel{fig:Code_PinsSetzen@cref}{{[figure][16][2147483647,0]16}{[A-1][10][]A-14}}
\@writefile{alof}{\contentsline {figure}{\numberline {17}{\ignorespaces Dampferzeugungssystem mit Sensorik\relax }}{A-15}{figure.caption.99}\protected@file@percent }
\newlabel{fig:dampfsystem}{{17}{A-15}{Dampferzeugungssystem mit Sensorik\relax }{figure.caption.99}{}}
\newlabel{fig:dampfsystem@cref}{{[figure][17][2147483647,0]17}{[A-1][15][]A-15}}
\@writefile{alof}{\contentsline {figure}{\numberline {18}{\ignorespaces Temperaturkurve in leerer Klimakammer\relax }}{A-16}{figure.caption.100}\protected@file@percent }
\newlabel{fig:tempaenderung}{{18}{A-16}{Temperaturkurve in leerer Klimakammer\relax }{figure.caption.100}{}}
\newlabel{fig:tempaenderung@cref}{{[figure][18][2147483647,0]18}{[A-1][16][]A-16}}
\@writefile{alof}{\contentsline {figure}{\numberline {19}{\ignorespaces Beispiel Textdatei f\IeC {\"u}r eine Kurvendatei zum Einladen\relax }}{A-16}{figure.caption.101}\protected@file@percent }
\newlabel{fig:curvedata_txt}{{19}{A-16}{Beispiel Textdatei für eine Kurvendatei zum Einladen\relax }{figure.caption.101}{}}
\newlabel{fig:curvedata_txt@cref}{{[figure][19][2147483647,0]19}{[A-1][16][]A-16}}
\@writefile{alof}{\contentsline {figure}{\numberline {20}{\ignorespaces Sprungantwort des Temperatursystems mit den Regelparametern T\textsubscript  {u} und T\textsubscript  {g}\relax }}{A-17}{figure.caption.102}\protected@file@percent }
\newlabel{fig:sprungTemp}{{20}{A-17}{Sprungantwort des Temperatursystems mit den Regelparametern T\textsubscript {u} und T\textsubscript {g}\relax }{figure.caption.102}{}}
\newlabel{fig:sprungTemp@cref}{{[figure][20][2147483647,0]20}{[A-1][17][]A-17}}
\@writefile{alof}{\contentsline {figure}{\numberline {21}{\ignorespaces Sprungantwort des Temperatursystems mit dem Regelparameter T\textsubscript  {$sum$}\relax }}{A-18}{figure.caption.103}\protected@file@percent }
\newlabel{fig:sprungTemp_T}{{21}{A-18}{Sprungantwort des Temperatursystems mit dem Regelparameter T\textsubscript {$sum$}\relax }{figure.caption.103}{}}
\newlabel{fig:sprungTemp_T@cref}{{[figure][21][2147483647,0]21}{[A-1][17][]A-18}}
\abx@aux@refcontextdefaultsdone
\abx@aux@defaultrefcontext{0}{vs_doku}{nty/global//global/global}
\abx@aux@defaultrefcontext{0}{diode}{nty/global//global/global}
\abx@aux@defaultrefcontext{0}{uC_USB}{nty/global//global/global}
\abx@aux@defaultrefcontext{0}{uC_GPIOconf}{nty/global//global/global}
\abx@aux@defaultrefcontext{0}{az1117}{nty/global//global/global}
\abx@aux@defaultrefcontext{0}{dsheet:entfeucht}{nty/global//global/global}
\abx@aux@defaultrefcontext{0}{anleitung_zylinder}{nty/global//global/global}
\abx@aux@defaultrefcontext{0}{csharp_doku}{nty/global//global/global}
\abx@aux@defaultrefcontext{0}{wavelabs}{nty/global//global/global}
\abx@aux@defaultrefcontext{0}{sht75}{nty/global//global/global}
\abx@aux@defaultrefcontext{0}{regler_T}{nty/global//global/global}
\abx@aux@defaultrefcontext{0}{datalogger}{nty/global//global/global}
\abx@aux@defaultrefcontext{0}{fdc637}{nty/global//global/global}
\abx@aux@defaultrefcontext{0}{printrelais}{nty/global//global/global}
\abx@aux@defaultrefcontext{0}{luftfmess}{nty/global//global/global}
\abx@aux@defaultrefcontext{0}{lastwiderstand_datasheet}{nty/global//global/global}
\abx@aux@defaultrefcontext{0}{hterm}{nty/global//global/global}
\abx@aux@defaultrefcontext{0}{si7021}{nty/global//global/global}
\abx@aux@defaultrefcontext{0}{autoschrank}{nty/global//global/global}
\abx@aux@defaultrefcontext{0}{befeuchterarten}{nty/global//global/global}
\abx@aux@defaultrefcontext{0}{absL}{nty/global//global/global}
\abx@aux@defaultrefcontext{0}{FeuchteBer}{nty/global//global/global}
\abx@aux@defaultrefcontext{0}{relL}{nty/global//global/global}
\abx@aux@defaultrefcontext{0}{regler_optimierung}{nty/global//global/global}
\abx@aux@defaultrefcontext{0}{brutschrank}{nty/global//global/global}
\abx@aux@defaultrefcontext{0}{pyrom}{nty/global//global/global}
\abx@aux@defaultrefcontext{0}{entfeuchterarten}{nty/global//global/global}
\abx@aux@defaultrefcontext{0}{dsheet:chiller}{nty/global//global/global}
\abx@aux@defaultrefcontext{0}{regler}{nty/global//global/global}
\abx@aux@defaultrefcontext{0}{elektrotechnik}{nty/global//global/global}
\abx@aux@defaultrefcontext{0}{stm32}{nty/global//global/global}
\abx@aux@defaultrefcontext{0}{cubeMX}{nty/global//global/global}
\abx@aux@defaultrefcontext{0}{stmprogrammer}{nty/global//global/global}
\abx@aux@defaultrefcontext{0}{stm32f038}{nty/global//global/global}
\abx@aux@defaultrefcontext{0}{stm32f042}{nty/global//global/global}
\abx@aux@defaultrefcontext{0}{stm32l052}{nty/global//global/global}
\abx@aux@defaultrefcontext{0}{uC_datasheet}{nty/global//global/global}
\abx@aux@defaultrefcontext{0}{stm8}{nty/global//global/global}
\abx@aux@defaultrefcontext{0}{thempmess}{nty/global//global/global}
\abx@aux@defaultrefcontext{0}{therm}{nty/global//global/global}
\abx@aux@defaultrefcontext{0}{tl431}{nty/global//global/global}
\abx@aux@defaultrefcontext{0}{atollic}{nty/global//global/global}
\abx@aux@defaultrefcontext{0}{stLink}{nty/global//global/global}
\abx@aux@defaultrefcontext{0}{chiller_funkt}{nty/global//global/global}
\abx@aux@defaultrefcontext{0}{dz}{nty/global//global/global}
\abx@aux@defaultrefcontext{0}{mollier_diag}{nty/global//global/global}
\abx@aux@defaultrefcontext{0}{regelkreis}{nty/global//global/global}
\abx@aux@defaultrefcontext{0}{sprungantwort}{nty/global//global/global}
\abx@aux@defaultrefcontext{0}{stm32_ab}{nty/global//global/global}
\abx@aux@defaultrefcontext{0}{VBUS}{nty/global//global/global}
\@writefile{alof}{\contentsline {figure}{\numberline {22}{\ignorespaces Temperaturkurve des PID-Reglers nach Ziegler/Nichols f\IeC {\"u}r eine Temperatursteigerung\relax }}{A-19}{figure.caption.104}\protected@file@percent }
\newlabel{fig:sprung_heiz_ZN}{{22}{A-19}{Temperaturkurve des PID-Reglers nach Ziegler/Nichols für eine Temperatursteigerung\relax }{figure.caption.104}{}}
\newlabel{fig:sprung_heiz_ZN@cref}{{[figure][22][2147483647,0]22}{[A-1][19][]A-19}}
\@writefile{alof}{\contentsline {figure}{\numberline {23}{\ignorespaces Temperaturkurve des PID-Reglers nach Kuhn f\IeC {\"u}r eine Temperatursteigerung\relax }}{A-19}{figure.caption.105}\protected@file@percent }
\newlabel{fig:sprung_heiz_T}{{23}{A-19}{Temperaturkurve des PID-Reglers nach Kuhn für eine Temperatursteigerung\relax }{figure.caption.105}{}}
\newlabel{fig:sprung_heiz_T@cref}{{[figure][23][2147483647,0]23}{[A-1][19][]A-19}}
\@writefile{alof}{\contentsline {figure}{\numberline {24}{\ignorespaces Flussdiagramm der Start-Buttons im ersten Tab der GUI\relax }}{A-20}{figure.caption.106}\protected@file@percent }
\newlabel{fig:button_start_wert}{{24}{A-20}{Flussdiagramm der Start-Buttons im ersten Tab der GUI\relax }{figure.caption.106}{}}
\newlabel{fig:button_start_wert@cref}{{[figure][24][2147483647,0]24}{[A-1][19][]A-20}}
\@writefile{alof}{\contentsline {figure}{\numberline {25}{\ignorespaces Flussdiagramm der Stop-Buttons im ersten Tab der GUI\relax }}{A-21}{figure.caption.107}\protected@file@percent }
\newlabel{fig:button_stop_wert}{{25}{A-21}{Flussdiagramm der Stop-Buttons im ersten Tab der GUI\relax }{figure.caption.107}{}}
\newlabel{fig:button_stop_wert@cref}{{[figure][25][2147483647,0]25}{[A-1][19][]A-21}}
\@writefile{alof}{\contentsline {figure}{\numberline {26}{\ignorespaces Flussdiagramm f\IeC {\"u}r die Ver\IeC {\"a}nderung der Laufzeit des zweiten Tabs der GUI\relax }}{A-22}{figure.caption.108}\protected@file@percent }
\newlabel{fig:textfeld_laufzeit}{{26}{A-22}{Flussdiagramm für die Veränderung der Laufzeit des zweiten Tabs der GUI\relax }{figure.caption.108}{}}
\newlabel{fig:textfeld_laufzeit@cref}{{[figure][26][2147483647,0]26}{[A-1][19][]A-22}}
\global\@namedef{scr@dte@chapter@lastmaxnumwidth}{10.96793pt}
\global\@namedef{scr@dte@section@lastmaxnumwidth}{18.59993pt}
\global\@namedef{scr@dte@subsection@lastmaxnumwidth}{26.81993pt}
\global\@namedef{scr@dte@figure@lastmaxnumwidth}{24.17993pt}
\global\@namedef{scr@dte@table@lastmaxnumwidth}{18.59993pt}
