[0] Config.pm:304> INFO - This is Biber 2.12
[1] Config.pm:307> INFO - Logfile is '01Hauptdatei.blg'
[63] biber-MSWIN64:315> INFO - === 
[113] Biber.pm:371> INFO - Reading '01Hauptdatei.bcf'
[302] Biber.pm:886> INFO - Using all citekeys in bib section 0
[329] Biber.pm:4093> INFO - Processing section 0
[356] Biber.pm:4254> INFO - Looking for bibtex format file 'Hilfsdateien/literatur.bib' for section 0
[361] bibtex.pm:1523> INFO - LaTeX decoding ...
[429] bibtex.pm:1340> INFO - Found BibTeX data source 'Hilfsdateien/literatur.bib'
[601] UCollate.pm:68> INFO - Overriding locale 'de-DE' defaults 'variable = shifted' with 'variable = non-ignorable'
[601] UCollate.pm:68> INFO - Overriding locale 'de-DE' defaults 'normalization = NFD' with 'normalization = prenormalized'
[601] Biber.pm:3921> INFO - Sorting list 'nty/global//global/global' of type 'entry' with template 'nty' and locale 'de-DE'
[601] Biber.pm:3927> INFO - No sort tailoring available for locale 'de-DE'
[681] bbl.pm:636> INFO - Writing '01Hauptdatei.bbl' with encoding 'UTF-8'
[702] bbl.pm:739> INFO - Output to 01Hauptdatei.bbl
