Chiller-Refrig-Circuit
https://www.thermalcare.com/images/Refrig-Circuit.gif
13.05.19,14:29

Mollier Diagramm
https://www.dolder-ing.ch/wissen/Lueftung-Klima/Bilder/Mollier_h-x-Diagramm_101325mbar.gif
17.05.2019, 12:06


dz
https://klimatabogi.ru/upload/iblock/967/96793a98b4fee1c814694b928a662007.jpg
15.07.19, 13:52




